<?xml version="1.0" encoding="utf-8"?>
<svg id="master-artboard" viewBox="0 0 413.6172180175781 78.78306579589844" version="1.1" xmlns="http://www.w3.org/2000/svg" x="0px" y="0px" style="enable-background:new 0 0 1400 980;" width="413.6172180175781px" height="78.78306579589844px"><defs>
<style id="ee-google-fonts">@import url(https://fonts.googleapis.com/css?family=Felipa:400|Faster+One:400);</style></defs><g transform="matrix(1.5756616592407229, 0, 0, 1.5756616592407229, 88.63398539182526, 3.375308779141051e-7)" id="413c9f65-8e39-4b26-8de1-94673ba7b86a">
</g><g transform="matrix(1.0000000000000002, 0, 0, 1, 9.47839736938488, -1.3540663719177815)"><g transform="matrix(1.0000000000000002, 0, 0, 1, 1.1368683772161603e-13, 0)"><g transform="matrix(0.8559274673461915, 0, 0, 0.8559274673461915, -0.4719714414002283, 12.092084607023423)"><g transform="matrix(0.15309686958789828, 0, 0, 0.15309686958789825, 40.80591108096644, -19.501754313004767)"><g transform="matrix(1.8552718162536619, 0, 0, 1.8552718162536619, -1708.7017822265623, -619.5245361328125)"><g transform="matrix(1, 0, 0, 1, 0, 0)"><path d="M 1063.5999755859375 461 L 1091.5 489.5 L 1066.300048828125 515.2000122070312 L 1136.4000244140625 515.2000122070312 L 1136.4000244140625 461 Z" class="st16" style="fill: rgb(252, 174, 38);" transform="matrix(1, 0, 0, 1, 1.8189894035458565e-12, 4.547473508864641e-13)"/><path d="M 1136.4000244140625 461 L 1075.300048828125 539.9000244140625 L 1136.4000244140625 515.2000122070312 Z" class="st17" style="fill: rgb(203, 122, 31);" transform="matrix(1, 0, 0, 1, 1.8189894035458565e-12, 4.547473508864641e-13)"/><path d="M 1357.5999755859375 566.0999755859375 L 1286.4000244140625 566.0999755859375 L 1286.4000244140625 619.2000122070312 L 1361.4000244140625 619.2000122070312 L 1332.4000244140625 592.7000122070312 Z" class="st16" style="fill: rgb(252, 174, 38);" transform="matrix(1, 0, 0, 1, 1.8189894035458565e-12, 4.547473508864641e-13)"/><path d="M 1346.5999755859375 539.9000244140625 L 1286.4000244140625 619.2000122070312 L 1286.4000244140625 566.0999755859375 Z" class="st17" style="fill: rgb(203, 122, 31);" transform="matrix(1, 0, 0, 1, 1.8189894035458565e-12, 4.547473508864641e-13)"/><path d="M 1211 631.9000244140625 L 1075.300048828125 539.9000244140625 L 1211 448 L 1346.5999755859375 539.9000244140625 Z" class="st18" style="fill: rgb(255, 203, 31);" transform="matrix(1, 0, 0, 1, 1.8189894035458565e-12, 4.547473508864641e-13)"/></g></g></g><g transform="matrix(0.48140031099319464, 0, 0, 0.48140031099319464, 123.68270590062411, 37.89989384421824)">
<g style="" vector-effect="non-scaling-stroke">
		<g transform="matrix(1 0 0 1 -15.07 3.04)">
<path style="stroke: none; stroke-width: 1; stroke-dasharray: none; stroke-linecap: butt; stroke-dashoffset: 0; stroke-linejoin: miter; stroke-miterlimit: 4; fill: rgb(255, 41, 87); fill-rule: nonzero; opacity: 1;" vector-effect="non-scaling-stroke" transform=" translate(-34.94, -53.04)" d="M 16.583 30.762 L 42.528 30.762 C 43.985 30.762 45.179 31.853 45.336999999999996 33.205 L 40.708999999999996 37.884 C 39.409 39.133 38.785 40.797 38.785 42.461 C 38.785 42.721 38.785 42.981 38.836999999999996 43.24 L 28.698 43.24 C 26.826 43.24 24.85 44.801 24.279 46.672000000000004 L 16.114 75.322 C 14.763000000000002 75.114 13.722000000000001 73.96900000000001 13.722000000000001 72.565 L 13.722000000000001 33.569 C 13.723 32.008 15.023 30.762 16.583 30.762 z M 56.151 43.24 L 56.047000000000004 43.24 L 56.151 43.188 L 56.151 43.24 z" stroke-linecap="round"/>
</g>
		<g transform="matrix(1 0 0 1 2.29 12.99)">
<path style="stroke: none; stroke-width: 1; stroke-dasharray: none; stroke-linecap: butt; stroke-dashoffset: 0; stroke-linejoin: miter; stroke-miterlimit: 4; fill: rgb(255, 41, 87); fill-rule: nonzero; opacity: 1;" vector-effect="non-scaling-stroke" transform=" translate(-52.28, -63)" d="M 86.153 49.011 L 78.19600000000001 76.98400000000001 C 77.67600000000002 78.64800000000001 75.909 80.052 74.24500000000002 80.052 L 20.585000000000022 80.052 C 18.923000000000023 80.052 17.934000000000022 78.64800000000001 18.403000000000024 76.98400000000001 L 26.410000000000025 49.01100000000001 C 26.878000000000025 47.34700000000001 28.646000000000026 45.94300000000001 30.362000000000023 45.94300000000001 L 39.77400000000002 45.94300000000001 C 40.03400000000002 46.360000000000014 40.34500000000002 46.72400000000001 40.709000000000024 47.088000000000015 L 40.709000000000024 47.140000000000015 C 42.99700000000002 49.271000000000015 46.532000000000025 47.91900000000002 50.58800000000002 45.94300000000001 L 56.15200000000002 45.94300000000001 L 56.15200000000002 65.23400000000001 C 56.15200000000002 67.93900000000001 58.38700000000002 70.174 61.090000000000025 70.174 L 65.87400000000002 70.174 C 68.57700000000003 70.174 70.76300000000002 67.93900000000001 70.76300000000002 65.23400000000001 L 70.76300000000002 45.943 L 75.49300000000002 45.943 C 79.39300000000003 47.867 82.87700000000002 49.114999999999995 85.32000000000002 47.242999999999995 L 85.42400000000002 47.190999999999995 L 85.52800000000002 47.086999999999996 C 85.63200000000002 46.983 85.73600000000002 46.879 85.78800000000003 46.775 C 86.258 47.295 86.411 48.128 86.153 49.011 z" stroke-linecap="round"/>
</g>
		<g transform="matrix(1 0 0 1 13.1 -5.82)">
<path style="stroke: none; stroke-width: 1; stroke-dasharray: none; stroke-linecap: butt; stroke-dashoffset: 0; stroke-linejoin: miter; stroke-miterlimit: 4; fill: rgb(255, 41, 87); fill-rule: nonzero; opacity: 1;" vector-effect="non-scaling-stroke" transform=" translate(-63.1, -44.18)" d="M 84.28 45.839 C 86.099 43.967 86.099 40.952 84.28 39.132 L 66.445 21.35 C 64.62599999999999 19.478 61.61099999999999 19.478 59.73899999999999 21.35 L 41.957 39.132 C 40.085 40.952 40.085 43.967 41.957 45.839 C 44.504 48.233 51.574 42.98 57.919 40.485 L 57.919 65.234 C 57.919 67.002 59.373999999999995 68.40599999999999 61.089999999999996 68.40599999999999 L 65.874 68.40599999999999 C 67.591 68.40599999999999 68.993 67.002 68.993 65.234 L 68.993 40.796 C 75.026 43.344 81.421 48.024 84.28 45.839 z" stroke-linecap="round"/>
</g>
		<g transform="matrix(1 0 0 1 13.1 -5.82)">
<path style="stroke: none; stroke-width: 1; stroke-dasharray: none; stroke-linecap: butt; stroke-dashoffset: 0; stroke-linejoin: miter; stroke-miterlimit: 4; fill: rgb(255, 41, 87); fill-rule: nonzero; opacity: 1;" vector-effect="non-scaling-stroke" transform=" translate(-63.1, -44.18)" d="M 84.28 45.839 C 86.099 43.967 86.099 40.952 84.28 39.132 L 66.445 21.35 C 64.62599999999999 19.478 61.61099999999999 19.478 59.73899999999999 21.35 L 41.957 39.132 C 40.085 40.952 40.085 43.967 41.957 45.839 C 44.504 48.233 51.574 42.98 57.919 40.485 L 57.919 65.234 C 57.919 67.002 59.373999999999995 68.40599999999999 61.089999999999996 68.40599999999999 L 65.874 68.40599999999999 C 67.591 68.40599999999999 68.993 67.002 68.993 65.234 L 68.993 40.796 C 75.026 43.344 81.421 48.024 84.28 45.839 z" stroke-linecap="round"/>
</g>
</g>
</g></g><path d="M 6.340000152587891 -19.516075134277344 L 7.78000020980835 -19.516075134277344 L 7.789999961853027 -19.466073989868164 C 7.630000114440918 -19.366073608398438 7.476666450500488 -19.196073532104492 7.329999923706055 -18.956073760986328 C 7.176666736602783 -18.709407806396484 7.073333263397217 -18.409406661987305 7.019999980926514 -18.056074142456055 C 6.539999961853027 -14.81607437133789 5.949999809265137 -11.356073379516602 5.25 -7.6760735511779785 C 5.110000133514404 -6.969407081604004 4.71999979019165 -6.276073455810547 4.079999923706055 -5.596073627471924 C 3.440000057220459 -4.922740459442139 2.683333396911621 -4.47940731048584 1.809999942779541 -4.266073703765869 C 1.1766666173934937 -4.266073703765869 0.4033333361148834 -4.6160736083984375 -0.5099999904632568 -5.316073417663574 C -0.7366666793823242 -5.476073741912842 -0.8533333539962769 -5.562740325927734 -0.8600000143051147 -5.57607364654541 L 0.05999999865889549 -6.196073532104492 C 0.2866666615009308 -5.98274040222168 0.4699999988079071 -5.82274055480957 0.6100000143051147 -5.716073989868164 C 0.75 -5.602740287780762 0.9599999785423279 -5.476073741912842 1.2400000095367432 -5.336073875427246 C 1.5199999809265137 -5.196073532104492 1.7933332920074463 -5.126073837280273 2.059999942779541 -5.126073837280273 C 2.619999885559082 -5.126073837280273 3.1033332347869873 -5.362740516662598 3.509999990463257 -5.836073875427246 C 3.9233334064483643 -6.302740097045898 4.193333148956299 -6.9960737228393555 4.320000171661377 -7.916073799133301 C 4.746666431427002 -10.942740440368652 5.273333549499512 -14.23274040222168 5.900000095367432 -17.786073684692383 C 5.9666666984558105 -18.139408111572266 6.079999923706055 -18.409406661987305 6.239999771118164 -18.596073150634766 L 5.139999866485596 -18.596073150634766 C 4.073333263397217 -18.596073150634766 3.323333263397217 -18.306074142456055 2.890000104904175 -17.72607421875 C 2.4566667079925537 -17.146072387695312 2.240000009536743 -16.146072387695312 2.240000009536743 -14.72607421875 L 1.1399999856948853 -13.866073608398438 C 1.1399999856948853 -15.07940673828125 1.3566666841506958 -16.119407653808594 1.7899999618530273 -16.986072540283203 C 2.2300000190734863 -17.846073150634766 2.9766666889190674 -18.582740783691406 4.03000020980835 -19.196073532104492 C 4.4033331871032715 -19.409406661987305 5.173333168029785 -19.516075134277344 6.340000152587891 -19.516075134277344 Z M 0 -5.796073913574219 L 8.050000190734863 -5.796073913574219 L 8.050000190734863 -5.026073455810547 L 0 -5.026073455810547 Z" transform="matrix(4.72265100479126, 0, 0, 4.72265100479126, 27.213268280029297, 98.12783813476562)" style="stroke: none; stroke-width: 1; stroke-dasharray: none; stroke-linecap: butt; stroke-dashoffset: 0; stroke-linejoin: miter; stroke-miterlimit: 4; fill: rgb(26, 109, 196); fill-rule: nonzero; opacity: 1; white-space: pre; text-decoration: underline; color: rgb(26, 109, 196);"/></g><g transform="matrix(1.9378144741058352, 0, 0, 1.4727387428283691, 189.51105827111826, -39.53456787895368)" style="" id="009ed2e1-abbd-4536-8efe-4a127b0fa50d">
		<path d="M 8.34000015258789 -17.17354965209961 C 9.5 -17.17354965209961 10.329999923706055 -16.966880798339844 10.829999923706055 -16.55354881286621 C 11.329999923706055 -16.140214920043945 11.579999923706055 -15.473548889160156 11.579999923706055 -14.553548812866211 C 11.579999923706055 -14.113548278808594 11.523333549499512 -13.573549270629883 11.40999984741211 -12.933547973632812 C 11.143333435058594 -11.420215606689453 10.680000305175781 -10.340215682983398 10.020000457763672 -9.693548202514648 C 9.366666793823242 -9.040215492248535 8.3100004196167 -8.71354866027832 6.849999904632568 -8.71354866027832 L 3.259999990463257 -8.71354866027832 L 4.739999771118164 -17.17354965209961 L 8.34000015258789 -17.17354965209961 M 7.949999809265137 -14.843548774719238 L 7.019999980926514 -14.843548774719238 L 6.349999904632568 -11.003548622131348 L 7.28000020980835 -11.003548622131348 C 7.586666584014893 -11.003548622131348 7.823333263397217 -11.043548583984375 7.989999771118164 -11.12354850769043 C 8.15666675567627 -11.203548431396484 8.260000228881836 -11.36688232421875 8.300000190734863 -11.613548278808594 L 8.770000457763672 -14.253548622131348 C 8.776666641235352 -14.293548583984375 8.779999732971191 -14.376882553100586 8.779999732971191 -14.503548622131348 C 8.779999732971191 -14.730215072631836 8.50333309173584 -14.843548774719238 7.949999809265137 -14.843548774719238 M 2.740000009536743 -8.763548851013184 L -4.050000190734863 -9.483549118041992 L 2.859999895095825 -9.483549118041992 L 2.740000009536743 -8.763548851013184 M 3.2799999713897705 -11.853549003601074 L -3.5 -12.573548316955566 L 3.4100000858306885 -12.573548316955566 L 3.2799999713897705 -11.853549003601074 M 3.549999952316284 -13.383548736572266 L -3.2300000190734863 -14.103548049926758 L 3.680000066757202 -14.103548049926758 L 3.549999952316284 -13.383548736572266 M 3.819999933242798 -14.923548698425293 L -2.9600000381469727 -15.643548965454102 L 3.950000047683716 -15.643548965454102 L 3.819999933242798 -14.923548698425293 M 4.099999904632568 -16.453548431396484 L -2.690000057220459 -17.17354965209961 L 4.210000038146973 -17.17354965209961 L 4.099999904632568 -16.453548431396484 M 3.009999990463257 -10.313549041748047 L -3.7799999713897705 -11.033548355102539 L 3.140000104904175 -11.033548355102539 L 3.009999990463257 -10.313549041748047 Z M 0 -22.363548278808594 L 12.399999618530273 -22.363548278808594 L 12.399999618530273 -21.6435489654541 L 0 -21.6435489654541 ZM 21.198551177978516 -17.17354965209961 C 22.758548736572266 -17.17354965209961 23.538551330566406 -16.47021484375 23.538551330566406 -15.063549041748047 C 23.538551330566406 -14.423548698425293 23.408550262451172 -13.760215759277344 23.148550033569336 -13.073549270629883 C 22.895217895507812 -12.386881828308105 22.46521759033203 -11.87354850769043 21.858551025390625 -11.533548355102539 L 22.768550872802734 -8.71354866027832 L 19.778549194335938 -8.71354866027832 L 19.168550491333008 -11.173548698425293 L 18.778549194335938 -11.173548698425293 L 18.348548889160156 -8.71354866027832 L 15.658550262451172 -8.71354866027832 L 17.1385498046875 -17.17354965209961 L 21.198551177978516 -17.17354965209961 M 20.608551025390625 -14.413548469543457 C 20.608551025390625 -14.420215606689453 20.61188316345215 -14.473548889160156 20.618549346923828 -14.573549270629883 C 20.618549346923828 -14.753548622131348 20.338550567626953 -14.843548774719238 19.778549194335938 -14.843548774719238 L 19.418550491333008 -14.843548774719238 L 19.168550491333008 -13.37354850769043 L 19.678550720214844 -13.37354850769043 C 20.17188262939453 -13.37354850769043 20.448551177978516 -13.533548355102539 20.508548736572266 -13.853548049926758 L 20.608551025390625 -14.413548469543457 M 15.1385498046875 -8.763548851013184 L 8.348549842834473 -9.483549118041992 L 15.258549690246582 -9.483549118041992 L 15.1385498046875 -8.763548851013184 M 15.678549766540527 -11.853549003601074 L 8.898550033569336 -12.573548316955566 L 15.808549880981445 -12.573548316955566 L 15.678549766540527 -11.853549003601074 M 15.9485502243042 -13.383548736572266 L 9.168550491333008 -14.103548049926758 L 16.078550338745117 -14.103548049926758 L 15.9485502243042 -13.383548736572266 M 16.218549728393555 -14.923548698425293 L 9.438549995422363 -15.643548965454102 L 16.34855079650879 -15.643548965454102 L 16.218549728393555 -14.923548698425293 M 16.498550415039062 -16.453548431396484 L 9.708549499511719 -17.17354965209961 L 16.608551025390625 -17.17354965209961 L 16.498550415039062 -16.453548431396484 M 15.408550262451172 -10.313549041748047 L 8.618550300598145 -11.033548355102539 L 15.53855037689209 -11.033548355102539 L 15.408550262451172 -10.313549041748047 Z M 12.398550033569336 -22.363548278808594 L 23.938549041748047 -22.363548278808594 L 23.938549041748047 -21.6435489654541 L 12.398550033569336 -21.6435489654541 ZM 27.19319725036621 -8.71354866027832 L 28.67319679260254 -17.17354965209961 L 31.483196258544922 -17.17354965209961 L 29.993196487426758 -8.71354866027832 L 27.19319725036621 -8.71354866027832 M 26.67319679260254 -8.763548851013184 L 19.883197784423828 -9.483549118041992 L 26.793197631835938 -9.483549118041992 L 26.67319679260254 -8.763548851013184 M 27.213197708129883 -11.853549003601074 L 20.433197021484375 -12.573548316955566 L 27.343196868896484 -12.573548316955566 L 27.213197708129883 -11.853549003601074 M 27.483196258544922 -13.383548736572266 L 20.703197479248047 -14.103548049926758 L 27.613197326660156 -14.103548049926758 L 27.483196258544922 -13.383548736572266 M 27.753196716308594 -14.923548698425293 L 20.97319793701172 -15.643548965454102 L 27.883197784423828 -15.643548965454102 L 27.753196716308594 -14.923548698425293 M 28.0331974029541 -16.453548431396484 L 21.243196487426758 -17.17354965209961 L 28.14319610595703 -17.17354965209961 L 28.0331974029541 -16.453548431396484 M 26.94319725036621 -10.313549041748047 L 20.153196334838867 -11.033548355102539 L 27.073196411132812 -11.033548355102539 L 26.94319725036621 -10.313549041748047 Z M 23.933197021484375 -22.363548278808594 L 31.753196716308594 -22.363548278808594 L 31.753196716308594 -21.6435489654541 L 23.933197021484375 -21.6435489654541 ZM 39.09627914428711 -17.17354965209961 L 39.09627914428711 -12.343548774719238 L 39.16627883911133 -12.343548774719238 L 41.01628112792969 -17.17354965209961 L 43.91627883911133 -17.17354965209961 L 40.49627685546875 -8.71354866027832 L 36.60627746582031 -8.71354866027832 L 36.13628005981445 -17.17354965209961 L 39.09627914428711 -17.17354965209961 M 29.336278915405273 -9.483549118041992 L 36.02627944946289 -9.483549118041992 L 36.07627868652344 -8.763548851013184 L 29.336278915405273 -9.483549118041992 M 29.246278762817383 -11.033548355102539 L 35.9462776184082 -11.033548355102539 L 35.976280212402344 -10.313549041748047 L 29.246278762817383 -11.033548355102539 M 28.876277923583984 -17.17354965209961 L 35.61627960205078 -17.17354965209961 L 35.656280517578125 -16.453548431396484 L 28.876277923583984 -17.17354965209961 M 28.97627830505371 -15.643548965454102 L 35.70627975463867 -15.643548965454102 L 35.73627853393555 -14.923548698425293 L 28.97627830505371 -15.643548965454102 M 29.0662784576416 -14.103548049926758 L 35.77627944946289 -14.103548049926758 L 35.816280364990234 -13.383548736572266 L 29.0662784576416 -14.103548049926758 M 29.166278839111328 -12.573548316955566 L 35.85627746582031 -12.573548316955566 L 35.896278381347656 -11.853549003601074 L 29.166278839111328 -12.573548316955566 Z M 31.75627899169922 -22.363548278808594 L 43.35627746582031 -22.363548278808594 L 43.35627746582031 -21.6435489654541 L 31.75627899169922 -21.6435489654541 ZM 52.294921875 -12.153549194335938 L 49.91492462158203 -12.153549194335938 L 49.72492218017578 -11.063549041748047 L 52.68492126464844 -11.063549041748047 L 52.264923095703125 -8.71354866027832 L 46.61492156982422 -8.71354866027832 L 48.09492492675781 -17.17354965209961 L 53.72492218017578 -17.17354965209961 L 52.97492218017578 -14.773548126220703 L 50.36492156982422 -14.773548126220703 L 50.174922943115234 -13.693548202514648 L 52.57492446899414 -13.693548202514648 L 52.294921875 -12.153549194335938 M 46.09492492675781 -8.763548851013184 L 39.30492401123047 -9.483549118041992 L 46.21492385864258 -9.483549118041992 L 46.09492492675781 -8.763548851013184 M 46.63492202758789 -11.853549003601074 L 39.854923248291016 -12.573548316955566 L 46.764923095703125 -12.573548316955566 L 46.63492202758789 -11.853549003601074 M 46.90492248535156 -13.383548736572266 L 40.12492370605469 -14.103548049926758 L 47.0349235534668 -14.103548049926758 L 46.90492248535156 -13.383548736572266 M 47.174922943115234 -14.923548698425293 L 40.39492416381836 -15.643548965454102 L 47.30492401123047 -15.643548965454102 L 47.174922943115234 -14.923548698425293 M 47.45492172241211 -16.453548431396484 L 40.66492462158203 -17.17354965209961 L 47.56492233276367 -17.17354965209961 L 47.45492172241211 -16.453548431396484 M 46.36492156982422 -10.313549041748047 L 39.57492446899414 -11.033548355102539 L 46.49492263793945 -11.033548355102539 L 46.36492156982422 -10.313549041748047 Z M 43.354923248291016 -22.363548278808594 L 53.854923248291016 -22.363548278808594 L 53.854923248291016 -21.6435489654541 L 43.354923248291016 -21.6435489654541 Z" transform="matrix(2.162022113800049, 0, 0, 2.162022113800049, -20.33985710144043, 88.91350555419922)" style="stroke: none; stroke-width: 1; stroke-dasharray: none; stroke-linecap: butt; stroke-dashoffset: 0; stroke-linejoin: miter; stroke-miterlimit: 4; fill: rgb(37, 161, 122); fill-rule: nonzero; opacity: 1; white-space: pre; text-decoration: overline; color: rgb(37, 161, 122);"/>
</g></g></svg>